Simulation/Counter.vcd
$date
    Jul 18, 2024  16:16:11
$end
$version
    TOOL:	xmsim(64)	20.09-s012
$end
$timescale
    1 ns
$end

$scope module counter_testbench $end
$var reg       1 !    clk $end
$var reg       1 "    reset $end
$var wire      4 #    counter1 [3:0] $end
$var wire      4 $    counter2 [3:0] $end

$scope module up $end
$var wire      1 %    clk  $end
$var wire      1 &    reset  $end
$var wire      4 #    counter [3:0] $end
$var reg       4 '    counter_up [3:0] $end
$upscope $end


$scope module down $end
$var wire      1 (    clk  $end
$var wire      1 )    reset  $end
$var wire      4 $    counter [3:0] $end
$var reg       4 *    counter_down [3:0] $end
$upscope $end

$upscope $end

$enddefinitions $end
$dumpvars
0!
1"
b0 #
b1111 $
0%
1&
b0 '
0(
1)
b1111 *
$end
#5
1!
1(
1%
#10
0"
0!
0(
0%
0)
0&
#15
1!
1(
1%
b1110 *
b1 '
b1 #
b1110 $
#20
0!
0(
0%
#25
1!
1(
1%
b1101 *
b10 '
b10 #
b1101 $
#30
0!
0(
0%
#35
1!
1(
1%
b1100 *
b11 '
b11 #
b1100 $
#40
0!
0(
0%
#45
1!
1(
1%
b1011 *
b100 '
b100 #
b1011 $
#50
0!
0(
0%
#55
1!
1(
1%
b1010 *
b101 '
b101 #
b1010 $
#60
0!
0(
0%
#65
1!
1(
1%
b1001 *
b110 '
b110 #
b1001 $
#70
0!
0(
0%
#75
1!
1(
1%
b1000 *
b111 '
b111 #
b1000 $
#80
0!
0(
0%
#85
1!
1(
1%
b111 *
b1000 '
b1000 #
b111 $
#90
0!
0(
0%
#95
1!
1(
1%
b110 *
b1001 '
b1001 #
b110 $
#100
0!
0(
0%
#105
1!
1(
1%
b101 *
b1010 '
b1010 #
b101 $
#110
0!
0(
0%
#115
1!
1(
1%
b100 *
b1011 '
b1011 #
b100 $
#120
0!
0(
0%
#125
1!
1(
1%
b11 *
b1100 '
b1100 #
b11 $
#130
0!
0(
0%
#135
1!
1(
1%
b10 *
b1101 '
b1101 #
b10 $
#140
0!
0(
0%
#145
1!
1(
1%
b1 *
b1110 '
b1110 #
b1 $
#150
0!
0(
0%
#155
1!
1(
1%
b0 *
b1111 '
b1111 #
b0 $
#160
0!
0(
0%
#165
1!
1(
1%
b1111 *
b0 '
b0 #
b1111 $
#170
0!
0(
0%
#175
1!
1(
1%
b1110 *
b1 '
b1 #
b1110 $
#180
0!
0(
0%
#185
1!
1(
1%
b1101 *
b10 '
b10 #
b1101 $
#190
0!
0(
0%
#195
1!
1(
1%
b1100 *
b11 '
b11 #
b1100 $
#200
0!
0(
0%
#205
1!
1(
1%
b1011 *
b100 '
b100 #
b1011 $
#210
0!
0(
0%
#215
1!
1(
1%
b1010 *
b101 '
b101 #
b1010 $
#220
0!
0(
0%
#225
1!
1(
1%
b1001 *
b110 '
b110 #
b1001 $
#230
0!
0(
0%
#235
1!
1(
1%
b1000 *
b111 '
b111 #
b1000 $
#240
0!
0(
0%
#245
1!
1(
1%
b111 *
b1000 '
b1000 #
b111 $
#250
0!
0(
0%
#255
1!
1(
1%
b110 *
b1001 '
b1001 #
b110 $
#260
0!
0(
0%
#265
1!
1(
1%
b101 *
b1010 '
b1010 #
b101 $
#270
0!
0(
0%
#275
1!
1(
1%
b100 *
b1011 '
b1011 #
b100 $
#280
0!
0(
0%
#285
1!
1(
1%
b11 *
b1100 '
b1100 #
b11 $
#290
0!
0(
0%
#295
1!
1(
1%
b10 *
b1101 '
b1101 #
b10 $
#300
0!
0(
0%
#305
1!
1(
1%
b1 *
b1110 '
b1110 #
b1 $
#310
0!
0(
0%
#315
1!
1(
1%
b0 *
b1111 '
b1111 #
b0 $
#320
0!
0(
0%
#325
1!
1(
1%
b1111 *
b0 '
b0 #
b1111 $
#330
0!
0(
0%
#335
1!
1(
1%
b1110 *
b1 '
b1 #
b1110 $
#340
0!
0(
0%
#345
1!
1(
1%
b1101 *
b10 '
b10 #
b1101 $
#350
0!
0(
0%
#355
1!
1(
1%
b1100 *
b11 '
b11 #
b1100 $
#360
0!
0(
0%
#365
1!
1(
1%
b1011 *
b100 '
b100 #
b1011 $
#370
0!
0(
0%
#375
1!
1(
1%
b1010 *
b101 '
b101 #
b1010 $
#380
0!
0(
0%
#385
1!
1(
1%
b1001 *
b110 '
b110 #
b1001 $
#390
0!
0(
0%
#395
1!
1(
1%
b1000 *
b111 '
b111 #
b1000 $
#400
0!
0(
0%
#405
1!
1(
1%
b111 *
b1000 '
b1000 #
b111 $
#410
0!
0(
0%
#415
1!
1(
1%
b110 *
b1001 '
b1001 #
b110 $
#420
0!
0(
0%
#425
1!
1(
1%
b101 *
b1010 '
b1010 #
b101 $
#430
0!
0(
0%
#435
1!
1(
1%
b100 *
b1011 '
b1011 #
b100 $
#440
0!
0(
0%
#445
1!
1(
1%
b11 *
b1100 '
b1100 #
b11 $
#450
0!
0(
0%
#455
1!
1(
1%
b10 *
b1101 '
b1101 #
b10 $
#460
0!
0(
0%
#465
1!
1(
1%
b1 *
b1110 '
b1110 #
b1 $
#470
0!
0(
0%
#475
1!
1(
1%
b0 *
b1111 '
b1111 #
b0 $
